<?xml version="1.0" encoding="utf-8"?>
<!-- Generator: Adobe Illustrator 19.2.1, SVG Export Plug-In . SVG Version: 6.00 Build 0)  -->
<svg version="1.1" id="Layer_1" xmlns="http://www.w3.org/2000/svg" xmlns:xlink="http://www.w3.org/1999/xlink" x="0px" y="0px"
	 width="2784px" height="2318px" viewBox="0 0 2784 2318" style="enable-background:new 0 0 2784 2318;" xml:space="preserve">
<style type="text/css">
	.st0{fill:#E7EDF5;}
</style>
<path class="st0" d="M678.8995361,0c814.7106934,552.0732422,1360.9395752,1083.2681885,1724.0733643,1486.932251
	c357.8747559,397.8178711,419.7165527,543.0151367,362.2375488,650.0789795
	c-176.8024902,329.3222656-1393.2576904,131.5349121-2126.7998047,12.2658691
	C275.1101074,2090.2067871,2.1083317,2021.8699951,0.0121792,1937.6945801
	c-1.1564224-46.4406738,80.3264923-81.8195801,121.9413528-101.1915283
	c299.474884-139.40625,616.444519-418.7138672,710.1287231-634.7469482
	C981.5645752,857.0541382,722.5648804,298.4286194,111.0924988,0"/>
</svg>
